Kwon Lab Pipelines - R workshop
…
You can also state multiple conditions, separated by a comma. For example, filter(x > 5, y < 2) would pick all rows for which the value in the column x is greater than 5 and the value in the column y is less than 2. Note that the conditions are combined via logical and, both need to be satisfied for the row to be picked.

To try this out, pick all measurements at baseline for the placebo arm in table_02 :

table_02 %>%
  filter(time_point == ___, arm == ___)

Choosing data columns

The function select() allows you to pick specific data columns by name. This is frequently useful when a dataset has many more columns than we are interested in at the time. For example, if we are only interested in the participants’ education, and sex, we could select these three columns:

table_01 %>%
  select(education, sex)

# A tibble: 44 × 2
   education                     sex   
   <chr>                         <chr> 
 1 grade 10-12, matriculated     Female
 2 grade 10-12, matriculated     Female
 3 post-secondary                Female
 4 grade 10-12, not matriculated Female
 5 grade 10-12, matriculated     Female
 6 post-secondary                Female
 7 grade 10-12, not matriculated Female
 8 grade 10-12, not matriculated Female
 9 grade 10-12, not matriculated Female
10 less than grade 9             Female
# ℹ 34 more rows
…
This function subdivides the penguins dataset into subsets for each species and then calculates the number n for each subset, which is the number of observations in each subset.

The function count() here does all the work for us, but what if instead of counting we wanted to calculate the mean weight of the penguins for each species, or calculate the mean weight and count at the same time? We need a general framework that allows us to do these kinds of calculations with maximum flexibility.

The tidyverse approach is to first group a dataset with group_by() and then to calculate grouped summaries with summarize().

Grouping

Let’s first consider just grouping. If we look at the raw R output of just the penguins table or the penguins table after running it through group_by(arm), we see that the table is the same, except in the second case there is a line # Groups: arm [2] which indicates that the table is grouped by arm and there are two groups. (Here, we need to pipe the tables into the print() function to see the raw R output instead of a formatted table that would hide the grouping information.)

table_01 %>%
  print()

# A tibble: 44 × 6
   pid    arm       smoker       age education                     sex   
   <chr>  <chr>     <chr>      <dbl> <chr>                         <chr> 
 1 pid_01 placebo   non-smoker    26 grade 10-12, matriculated     Female
 2 pid_02 placebo   smoker        33 grade 10-12, matriculated     Female
 3 pid_03 placebo   smoker        30 post-secondary                Female
 4 pid_04 placebo   non-smoker    34 grade 10-12, not matriculated Female
 5 pid_05 treatment non-smoker    29 grade 10-12, matriculated     Female
 6 pid_06 placebo   smoker        34 post-secondary                Female
 7 pid_07 placebo   non-smoker    31 grade 10-12, not matriculated Female
 8 pid_08 placebo   smoker        30 grade 10-12, not matriculated Female
 9 pid_09 treatment non-smoker    35 grade 10-12, not matriculated Female
10 pid_10 treatment non-smoker    32 less than grade 9             Female
# ℹ 34 more rows

table_01 %>%
  group_by(arm) %>%
  print()

# A tibble: 44 × 6
# Groups:   arm [2]
   pid    arm       smoker       age education                     sex   
   <chr>  <chr>     <chr>      <dbl> <chr>                         <chr> 
 1 pid_01 placebo   non-smoker    26 grade 10-12, matriculated     Female
 2 pid_02 placebo   smoker        33 grade 10-12, matriculated     Female
 3 pid_03 placebo   smoker        30 post-secondary                Female
 4 pid_04 placebo   non-smoker    34 grade 10-12, not matriculated Female
 5 pid_05 treatment non-smoker    29 grade 10-12, matriculated     Female
 6 pid_06 placebo   smoker        34 post-secondary                Female
 7 pid_07 placebo   non-smoker    31 grade 10-12, not matriculated Female
 8 pid_08 placebo   smoker        30 grade 10-12, not matriculated Female
 9 pid_09 treatment non-smoker    35 grade 10-12, not matriculated Female
10 pid_10 treatment non-smoker    32 less than grade 9             Female
# ℹ 34 more rows

We can also group by multiple data columns at once, and we can undo any grouping with ungroup().

table_01 %>%
  group_by(arm, education) %>%
  print()

# A tibble: 44 × 6
# Groups:   arm, education [8]
   pid    arm       smoker       age education                     sex   
   <chr>  <chr>     <chr>      <dbl> <chr>                         <chr> 
 1 pid_01 placebo   non-smoker    26 grade 10-12, matriculated     Female
 2 pid_02 placebo   smoker        33 grade 10-12, matriculated     Female
 3 pid_03 placebo   smoker        30 post-secondary                Female
 4 pid_04 placebo   non-smoker    34 grade 10-12, not matriculated Female
 5 pid_05 treatment non-smoker    29 grade 10-12, matriculated     Female
 6 pid_06 placebo   smoker        34 post-secondary                Female
 7 pid_07 placebo   non-smoker    31 grade 10-12, not matriculated Female
 8 pid_08 placebo   smoker        30 grade 10-12, not matriculated Female
 9 pid_09 treatment non-smoker    35 grade 10-12, not matriculated Female
10 pid_10 treatment non-smoker    32 less than grade 9             Female
# ℹ 34 more rows

table_01 %>%
  group_by(arm, education) %>%
  ungroup() %>%
  print()

# A tibble: 44 × 6
   pid    arm       smoker       age education                     sex   
   <chr>  <chr>     <chr>      <dbl> <chr>                         <chr> 
 1 pid_01 placebo   non-smoker    26 grade 10-12, matriculated     Female
 2 pid_02 placebo   smoker        33 grade 10-12, matriculated     Female
 3 pid_03 placebo   smoker        30 post-secondary                Female
 4 pid_04 placebo   non-smoker    34 grade 10-12, not matriculated Female
 5 pid_05 treatment non-smoker    29 grade 10-12, matriculated     Female
 6 pid_06 placebo   smoker        34 post-secondary                Female
 7 pid_07 placebo   non-smoker    31 grade 10-12, not matriculated Female
 8 pid_08 placebo   smoker        30 grade 10-12, not matriculated Female
 9 pid_09 treatment non-smoker    35 grade 10-12, not matriculated Female
10 pid_10 treatment non-smoker    32 less than grade 9             Female
# ℹ 34 more rows
…
