Kwon Lab Pipelines - tidyverse for data analysis
…
−+

05:00

tibbles (aka data frames)

tibbles are the big reason R is great for working with tabular data.

A data frame is a rectangular collection of variables (in the columns) and observations (in the rows).

table_02

# A tibble: 132 × 6
   pid    time_point arm     nugent_score crp_blood    ph
   <chr>  <chr>      <chr>          <dbl>     <dbl> <dbl>
 1 pid_01 baseline   placebo            8      0.44   5.7
 2 pid_01 week_1     placebo            7      1.66   5.2
 3 pid_01 week_7     placebo            7      1.44   5.4
 4 pid_02 baseline   placebo            7      1.55   5.2
 5 pid_02 week_1     placebo            7      0.75   4.8
 6 pid_02 week_7     placebo            4      1.17   4.2
 7 pid_03 baseline   placebo            6      1.78   4.8
 8 pid_03 week_1     placebo           10      0.57   5.3
 9 pid_03 week_7     placebo            7      1.79   5.2
10 pid_04 baseline   placebo            5      1.76   4.8
# ℹ 122 more rows
…
Filter only placebo

```{r}
table_02 %>%
  filter(arm == "placebo")
```

# A tibble: 69 × 6
   pid    time_point arm     nugent_score crp_blood    ph
   <chr>  <chr>      <chr>          <dbl>     <dbl> <dbl>
 1 pid_01 baseline   placebo            8      0.44   5.7
 2 pid_01 week_1     placebo            7      1.66   5.2
 3 pid_01 week_7     placebo            7      1.44   5.4
 4 pid_02 baseline   placebo            7      1.55   5.2
 5 pid_02 week_1     placebo            7      0.75   4.8
 6 pid_02 week_7     placebo            4      1.17   4.2
 7 pid_03 baseline   placebo            6      1.78   4.8
 8 pid_03 week_1     placebo           10      0.57   5.3
 9 pid_03 week_7     placebo            7      1.79   5.2
10 pid_04 baseline   placebo            5      1.76   4.8
# ℹ 59 more rows

Filter out samples with ph < 4

```{r}
table_02 %>%
  filter(ph < 4)
```

# A tibble: 39 × 6
   pid    time_point arm       nugent_score crp_blood    ph
   <chr>  <chr>      <chr>            <dbl>     <dbl> <dbl>
 1 pid_05 week_1     treatment            3      0.19   3.2
 2 pid_05 week_7     treatment            2      0.45   3.5
 3 pid_09 week_1     treatment            3      0.27   3.6
 4 pid_10 week_1     treatment            0      0.01   3.5
 5 pid_10 week_7     treatment            1      2.87   2.9
 6 pid_11 week_1     treatment            1      0.1    3.3
 7 pid_15 week_1     treatment            3      0.84   3.4
 8 pid_15 week_7     treatment            3      0.68   3.5
 9 pid_16 week_1     treatment            0      0.03   3.7
10 pid_16 week_7     treatment            2      0.5    3.2
# ℹ 29 more rows
…
Pick columns pid, ph, and nugent

```{r}
table_02 %>%
  select(pid, ph, nugent_score)
```

# A tibble: 132 × 3
   pid       ph nugent_score
   <chr>  <dbl>        <dbl>
 1 pid_01   5.7            8
 2 pid_01   5.2            7
 3 pid_01   5.4            7
 4 pid_02   5.2            7
 5 pid_02   4.8            7
 6 pid_02   4.2            4
 7 pid_03   4.8            6
 8 pid_03   5.3           10
 9 pid_03   5.2            7
10 pid_04   4.8            5
# ℹ 122 more rows

Rename columns and subset with select

```{r}
table_02 %>%
  select(participant_id = pid, ph, nugent_score)
```

# A tibble: 132 × 3
   participant_id    ph nugent_score
   <chr>          <dbl>        <dbl>
 1 pid_01           5.7            8
 2 pid_01           5.2            7
 3 pid_01           5.4            7
 4 pid_02           5.2            7
 5 pid_02           4.8            7
 6 pid_02           4.2            4
 7 pid_03           4.8            6
 8 pid_03           5.3           10
 9 pid_03           5.2            7
10 pid_04           4.8            5
# ℹ 122 more rows
…
Sort samples by ph ascending

```{r}
table_02 %>%
  arrange(ph)
```

# A tibble: 132 × 6
   pid    time_point arm       nugent_score crp_blood    ph
   <chr>  <chr>      <chr>            <dbl>     <dbl> <dbl>
 1 pid_31 week_7     treatment            2      1.36   2.8
 2 pid_10 week_7     treatment            1      2.87   2.9
 3 pid_28 baseline   treatment            3      0.67   2.9
 4 pid_26 week_1     treatment            0      0.11   3  
 5 pid_23 week_7     placebo              3      3.67   3.1
 6 pid_40 baseline   treatment            3      1.48   3.1
 7 pid_40 week_1     treatment            2      0.17   3.1
 8 pid_05 week_1     treatment            3      0.19   3.2
 9 pid_16 week_7     treatment            2      0.5    3.2
10 pid_37 week_7     treatment            2      0.7    3.2
# ℹ 122 more rows

Sort samples by ph, descending

```{r}
table_02 %>%
  arrange(desc(ph))
```

# A tibble: 132 × 6
   pid    time_point arm       nugent_score crp_blood    ph
   <chr>  <chr>      <chr>            <dbl>     <dbl> <dbl>
 1 pid_29 baseline   placebo              7      2.39   5.8
 2 pid_01 baseline   placebo              8      0.44   5.7
 3 pid_16 baseline   treatment            6      1.91   5.7
 4 pid_06 week_1     placebo              8      1.72   5.6
 5 pid_26 baseline   treatment            7      0.94   5.6
 6 pid_13 week_1     placebo              7      2.57   5.5
 7 pid_23 week_1     placebo              8      0.8    5.5
 8 pid_27 baseline   placebo              7      1.17   5.5
 9 pid_01 week_7     placebo              7      1.44   5.4
10 pid_04 week_7     placebo              7      5.68   5.4
# ℹ 122 more rows

Counting things

To demonstrate counting, let’s switch to table_01

```{r}
table_01
```

# A tibble: 44 × 6
   pid    arm       smoker       age education                     sex   
   <chr>  <chr>     <chr>      <dbl> <chr>                         <chr> 
 1 pid_01 placebo   non-smoker    26 grade 10-12, matriculated     Female
 2 pid_02 placebo   smoker        33 grade 10-12, matriculated     Female
 3 pid_03 placebo   smoker        30 post-secondary                Female
 4 pid_04 placebo   non-smoker    34 grade 10-12, not matriculated Female
 5 pid_05 treatment non-smoker    29 grade 10-12, matriculated     Female
 6 pid_06 placebo   smoker        34 post-secondary                Female
 7 pid_07 placebo   non-smoker    31 grade 10-12, not matriculated Female
 8 pid_08 placebo   smoker        30 grade 10-12, not matriculated Female
 9 pid_09 treatment non-smoker    35 grade 10-12, not matriculated Female
10 pid_10 treatment non-smoker    32 less than grade 9             Female
# ℹ 34 more rows
…
Use the pipe to build analysis pipelines

```{r}
table_01 %>%
  filter(arm == "placebo")
```

# A tibble: 23 × 6
   pid    arm     smoker       age education                     sex   
   <chr>  <chr>   <chr>      <dbl> <chr>                         <chr> 
 1 pid_01 placebo non-smoker    26 grade 10-12, matriculated     Female
 2 pid_02 placebo smoker        33 grade 10-12, matriculated     Female
 3 pid_03 placebo smoker        30 post-secondary                Female
 4 pid_04 placebo non-smoker    34 grade 10-12, not matriculated Female
 5 pid_06 placebo smoker        34 post-secondary                Female
 6 pid_07 placebo non-smoker    31 grade 10-12, not matriculated Female
 7 pid_08 placebo smoker        30 grade 10-12, not matriculated Female
 8 pid_12 placebo non-smoker    31 grade 10-12, matriculated     Female
 9 pid_13 placebo non-smoker    32 post-secondary                Female
10 pid_14 placebo smoker        32 grade 10-12, matriculated     Female
# ℹ 13 more rows
…
Example: C-reactive protein

The crp_blood column is in units of mg/L. What if you needed it in ug/ul? What’s the calculation?

```{r}
table_02 %>%
  select(pid, time_point, crp_blood)
```

# A tibble: 132 × 3
   pid    time_point crp_blood
   <chr>  <chr>          <dbl>
 1 pid_01 baseline        0.44
 2 pid_01 week_1          1.66
 3 pid_01 week_7          1.44
 4 pid_02 baseline        1.55
 5 pid_02 week_1          0.75
 6 pid_02 week_7          1.17
 7 pid_03 baseline        1.78
 8 pid_03 week_1          0.57
 9 pid_03 week_7          1.79
10 pid_04 baseline        1.76
# ℹ 122 more rows

Example: C-reactive protein

The crp_blood column is in units of mg/L. What if you needed it in ug/ul? What’s the calculation?

To get ug/L you would multiply by 1000. To get ug/ul you need to then divide by 1000000

```{r}
table_02 %>%
  select(pid, time_point, crp_blood)
```

# A tibble: 132 × 3
   pid    time_point crp_blood
   <chr>  <chr>          <dbl>
 1 pid_01 baseline        0.44
 2 pid_01 week_1          1.66
 3 pid_01 week_7          1.44
 4 pid_02 baseline        1.55
 5 pid_02 week_1          0.75
 6 pid_02 week_7          1.17
 7 pid_03 baseline        1.78
 8 pid_03 week_1          0.57
 9 pid_03 week_7          1.79
10 pid_04 baseline        1.76
# ℹ 122 more rows

Example: C-reactive protein

The crp_blood column is in units of mg/L. What if you needed it in ug/ul? What’s the calculation?

To get ug/L you would multiply by 1000. To get ug/ul you need to then divide by 1000000

```{r}
table_02 %>%
  select(pid, time_point, crp_blood) %>%
  mutate(crp_blood_ugul = crp_blood / 1000)
```

# A tibble: 132 × 4
   pid    time_point crp_blood crp_blood_ugul
   <chr>  <chr>          <dbl>          <dbl>
 1 pid_01 baseline        0.44        0.00044
 2 pid_01 week_1          1.66        0.00166
 3 pid_01 week_7          1.44        0.00144
 4 pid_02 baseline        1.55        0.00155
 5 pid_02 week_1          0.75        0.00075
 6 pid_02 week_7          1.17        0.00117
 7 pid_03 baseline        1.78        0.00178
 8 pid_03 week_1          0.57        0.00057
 9 pid_03 week_7          1.79        0.00179
10 pid_04 baseline        1.76        0.00176
# ℹ 122 more rows

Make multiple columns at once

```{r}
table_02 %>%
  select(pid, time_point, crp_blood) %>%
  mutate(crp_blood_ugul = crp_blood / 1000,
         crp_blood_ugl = crp_blood * 1000)
```

# A tibble: 132 × 5
   pid    time_point crp_blood crp_blood_ugul crp_blood_ugl
   <chr>  <chr>          <dbl>          <dbl>         <dbl>
 1 pid_01 baseline        0.44        0.00044           440
 2 pid_01 week_1          1.66        0.00166          1660
 3 pid_01 week_7          1.44        0.00144          1440
 4 pid_02 baseline        1.55        0.00155          1550
 5 pid_02 week_1          0.75        0.00075           750
 6 pid_02 week_7          1.17        0.00117          1170
 7 pid_03 baseline        1.78        0.00178          1780
 8 pid_03 week_1          0.57        0.00057           570
 9 pid_03 week_7          1.79        0.00179          1790
10 pid_04 baseline        1.76        0.00176          1760
# ℹ 122 more rows
…
Example application of grouping: Counting

Previously we used count, now we group the data

```{r}
table_01 %>%
  group_by(smoker)
```

# A tibble: 44 × 6
# Groups:   smoker [2]
   pid    arm       smoker       age education                     sex   
   <chr>  <chr>     <chr>      <dbl> <chr>                         <chr> 
 1 pid_01 placebo   non-smoker    26 grade 10-12, matriculated     Female
 2 pid_02 placebo   smoker        33 grade 10-12, matriculated     Female
 3 pid_03 placebo   smoker        30 post-secondary                Female
 4 pid_04 placebo   non-smoker    34 grade 10-12, not matriculated Female
 5 pid_05 treatment non-smoker    29 grade 10-12, matriculated     Female
 6 pid_06 placebo   smoker        34 post-secondary                Female
 7 pid_07 placebo   non-smoker    31 grade 10-12, not matriculated Female
 8 pid_08 placebo   smoker        30 grade 10-12, not matriculated Female
 9 pid_09 treatment non-smoker    35 grade 10-12, not matriculated Female
10 pid_10 treatment non-smoker    32 less than grade 9             Female
# ℹ 34 more rows
…
Example application of grouping: Counting

Now let’s group by multiple variables

```{r}
table_01 %>%
  group_by(smoker, arm)
```

# A tibble: 44 × 6
# Groups:   smoker, arm [4]
   pid    arm       smoker       age education                     sex   
   <chr>  <chr>     <chr>      <dbl> <chr>                         <chr> 
 1 pid_01 placebo   non-smoker    26 grade 10-12, matriculated     Female
 2 pid_02 placebo   smoker        33 grade 10-12, matriculated     Female
 3 pid_03 placebo   smoker        30 post-secondary                Female
 4 pid_04 placebo   non-smoker    34 grade 10-12, not matriculated Female
 5 pid_05 treatment non-smoker    29 grade 10-12, matriculated     Female
 6 pid_06 placebo   smoker        34 post-secondary                Female
 7 pid_07 placebo   non-smoker    31 grade 10-12, not matriculated Female
 8 pid_08 placebo   smoker        30 grade 10-12, not matriculated Female
 9 pid_09 treatment non-smoker    35 grade 10-12, not matriculated Female
10 pid_10 treatment non-smoker    32 less than grade 9             Female
# ℹ 34 more rows
…
